---
http_interactions:
- request:
    method: get
    uri: https://pokeapi.co/api/v2/pokemon/
    body:
      encoding: US-ASCII
      string: ''
    headers:
      Accept-Encoding:
      - gzip;q=1.0,deflate;q=0.6,identity;q=0.3
      Accept:
      - "*/*"
      User-Agent:
      - Ruby
  response:
    status:
      code: 200
      message: OK
    headers:
      Date:
      - Tue, 29 Aug 2023 00:03:56 GMT
      Content-Type:
      - application/json; charset=utf-8
      Content-Length:
      - '1417'
      Connection:
      - keep-alive
      Access-Control-Allow-Origin:
      - "*"
      Cache-Control:
      - public, max-age=86400, s-maxage=86400
      Etag:
      - W/"589-gxKdAdBiut/GLsMZYq1M7sqXh9A"
      Function-Execution-Id:
      - yexr7ugvdv63
      Strict-Transport-Security:
      - max-age=31556926
      X-Cloud-Trace-Context:
      - 29c430a6133fcf2d687f41f14a0b27dc
      X-Country-Code:
      - CA
      X-Orig-Accept-Language:
      - en-US
      X-Powered-By:
      - Express
      X-Served-By:
      - cache-yyz4572-YYZ
      X-Cache:
      - HIT
      X-Cache-Hits:
      - '1'
      X-Timer:
      - S1681538446.609246,VS0,VE1
      Vary:
      - Accept-Encoding,cookie,need-authorization, x-fh-requested-host, accept-encoding
      Alt-Svc:
      - h3=":443"; ma=86400
      Cf-Cache-Status:
      - HIT
      Age:
      - '86075'
      Accept-Ranges:
      - bytes
      Report-To:
      - '{"endpoints":[{"url":"https:\/\/a.nel.cloudflare.com\/report\/v3?s=HQa8%2FOVouZ%2FUbtl7bRJucsEDPb3dFP5f3I5%2FEOMZ4mRYvZOG%2BFC6s17wvGbfMnmFyfxdD8qScaTw2rBROSqFRZgr2XfQjUax0xcfuaxM67MWt16mPmFtLeHlL25j"}],"group":"cf-nel","max_age":604800}'
      Nel:
      - '{"success_fraction":0,"report_to":"cf-nel","max_age":604800}'
      Server:
      - cloudflare
      Cf-Ray:
      - 7fe088a5dac58d9d-MIA
    body:
      encoding: ASCII-8BIT
      string: '{"count":1281,"next":"https://pokeapi.co/api/v2/pokemon/?offset=20&limit=20","previous":null,"results":[{"name":"bulbasaur","url":"https://pokeapi.co/api/v2/pokemon/1/"},{"name":"ivysaur","url":"https://pokeapi.co/api/v2/pokemon/2/"},{"name":"venusaur","url":"https://pokeapi.co/api/v2/pokemon/3/"},{"name":"charmander","url":"https://pokeapi.co/api/v2/pokemon/4/"},{"name":"charmeleon","url":"https://pokeapi.co/api/v2/pokemon/5/"},{"name":"charizard","url":"https://pokeapi.co/api/v2/pokemon/6/"},{"name":"squirtle","url":"https://pokeapi.co/api/v2/pokemon/7/"},{"name":"wartortle","url":"https://pokeapi.co/api/v2/pokemon/8/"},{"name":"blastoise","url":"https://pokeapi.co/api/v2/pokemon/9/"},{"name":"caterpie","url":"https://pokeapi.co/api/v2/pokemon/10/"},{"name":"metapod","url":"https://pokeapi.co/api/v2/pokemon/11/"},{"name":"butterfree","url":"https://pokeapi.co/api/v2/pokemon/12/"},{"name":"weedle","url":"https://pokeapi.co/api/v2/pokemon/13/"},{"name":"kakuna","url":"https://pokeapi.co/api/v2/pokemon/14/"},{"name":"beedrill","url":"https://pokeapi.co/api/v2/pokemon/15/"},{"name":"pidgey","url":"https://pokeapi.co/api/v2/pokemon/16/"},{"name":"pidgeotto","url":"https://pokeapi.co/api/v2/pokemon/17/"},{"name":"pidgeot","url":"https://pokeapi.co/api/v2/pokemon/18/"},{"name":"rattata","url":"https://pokeapi.co/api/v2/pokemon/19/"},{"name":"raticate","url":"https://pokeapi.co/api/v2/pokemon/20/"}]}'
  recorded_at: Tue, 29 Aug 2023 00:03:56 GMT
recorded_with: VCR 6.2.0
